<?xml version="1.0" encoding="UTF-8" standalone="no"?>
<svg
   xmlns:dc="http://purl.org/dc/elements/1.1/"
   xmlns:cc="http://creativecommons.org/ns#"
   xmlns:rdf="http://www.w3.org/1999/02/22-rdf-syntax-ns#"
   xmlns:svg="http://www.w3.org/2000/svg"
   xmlns="http://www.w3.org/2000/svg"
   xmlns:sodipodi="http://sodipodi.sourceforge.net/DTD/sodipodi-0.dtd"
   xmlns:inkscape="http://www.inkscape.org/namespaces/inkscape"
   width="600mm"
   height="800mm"
   viewBox="0 0 600.00001 800.00003"
   version="1.1"
   id="svg2"
   inkscape:version="0.92.5 (0.92.5+68)"
   sodipodi:docname="#panneau_lateral_02.svg">
  <metadata
     id="metadata72">
    <rdf:RDF>
      <cc:Work
         rdf:about="">
        <dc:format>image/svg+xml</dc:format>
        <dc:type
           rdf:resource="http://purl.org/dc/dcmitype/StillImage" />
        <dc:title />
      </cc:Work>
    </rdf:RDF>
  </metadata>
  <defs
     id="defs70" />
  <sodipodi:namedview
     pagecolor="#ffffff"
     bordercolor="#666666"
     borderopacity="1"
     objecttolerance="10"
     gridtolerance="10"
     guidetolerance="10"
     inkscape:pageopacity="0"
     inkscape:pageshadow="2"
     inkscape:window-width="958"
     inkscape:window-height="488"
     id="namedview68"
     showgrid="false"
     inkscape:document-units="mm"
     inkscape:zoom="0.075069327"
     inkscape:cx="-126.81271"
     inkscape:cy="1285.3562"
     inkscape:window-x="722"
     inkscape:window-y="505"
     inkscape:window-maximized="0"
     inkscape:current-layer="svg2" />
  <path
     inkscape:connector-curvature="0"
     style="fill:none;fill-rule:evenodd;stroke:#ff0000;stroke-width:0.01;stroke-miterlimit:4;stroke-dasharray:none;stroke-opacity:1"
     d="m 124.34259,791.04878 h 213.24699 v -10 h 50 v 10 h 100 v -10 h 50 v 10 h 45.323 v -50 h 10 V 467.84842 h -10 v -50 h 10 V 144.64805 h -10 V 94.648054 h 10 A 15,15 0 0 0 580.74953,79.918777 l -102.17759,-19.68 a 15,15 0 0 0 -17.56622,11.89234 l -20.8856,108.436973 a 439.72036,439.72036 0 0 1 0.16899,0.76674 l 0.0191,-0.0991 9.81952,1.8913 -1.8913,9.81952 -5.77692,-1.11267 A 439.72036,439.72036 0 0 1 109.3426,704.12878 v 71.92 a 15,15 0 0 0 14.99999,15 z m 286.91666,-119.31415 -49.41413,7.63178 -1.52636,-9.88283 49.41413,-7.63178 z m -1.36483,-64.65748 9.84807,1.73648 -8.6824,49.24039 -9.84808,-1.73648 z m 73.62682,-417.55849 -8.6824,49.24039 9.84807,1.73648 8.68241,-49.24039 z m -36.81341,208.77925 9.84808,1.73648 -8.68241,49.24038 -9.84808,-1.73648 z m -218.87382,301.76589 -1.52636,-9.88283 49.41413,-7.63178 1.52636,9.88283 z m 19.75557,70.63498 h -10 v -50 h 10 z m 248.07457,-682.750563 49.09761,9.456486 1.89129,-9.819516 -49.0976,-9.45649 z"
     id="Part__Feature_f0004" />
  <path
     inkscape:connector-curvature="0"
     style="fill:none;fill-rule:evenodd;stroke:#ff0000;stroke-width:0.01;stroke-miterlimit:4;stroke-dasharray:none;stroke-opacity:1"
     d="m 209.89661,653.04231 -9.34256,-3.56601 3.566,-9.34257 -32.03838,-12.22888 37.44309,-98.09698 -9.34257,-3.56601 17.83003,-46.7128 9.34257,3.56601 44.57511,-116.78212 44.57511,-116.78211 -9.34257,-3.56601 17.83004,-46.71285 9.34257,3.56601 37.44309,-98.09697 32.03838,12.22888 3.56601,-9.34257 9.34257,3.56601 -203.26248,532.5264 z"
     id="Part__Feature_f0019" />
  <path
     id="path117"
     d="m 145.41077,621.90286 -9.34257,-3.56601 3.56601,-9.34257 -32.03838,-12.22888 37.4431,-98.09702 -9.34256,-3.566 17.83002,-46.71281 9.34257,3.56601 44.57511,-116.78212 44.57511,-116.78211 -9.34257,-3.56601 17.83005,-46.71285 9.34256,3.56601 37.44309,-98.096972 32.03839,12.228881 3.56601,-9.342569 9.34257,3.566009 -203.2625,532.526441 z"
     style="fill:none;fill-rule:evenodd;stroke:#ff0000;stroke-width:0.01;stroke-miterlimit:4;stroke-dasharray:none;stroke-opacity:1"
     inkscape:connector-curvature="0" />
</svg>
